\beamer@endinputifotherversion {3.07pt}
\headcommand {\slideentry {0}{0}{1}{1/1}{}{0}}
\headcommand {\beamer@framepages {1}{1}}
\headcommand {\slideentry {0}{0}{2}{2/2}{}{0}}
\headcommand {\beamer@framepages {2}{2}}
\headcommand {\sectionentry {1}{Motiva\c c\~ao}{3}{Motiva\c c\~ao}{0}}
\headcommand {\beamer@sectionpages {1}{2}}
\headcommand {\beamer@subsectionpages {1}{2}}
\headcommand {\beamer@subsectionentry {0}{1}{1}{3}{The Basic Problem That We Studied}}\headcommand {\beamer@subsectionpages {3}{2}}
\headcommand {\slideentry {1}{1}{1}{3/3}{The Basic Problem That We Studied}{0}}
\headcommand {\beamer@framepages {3}{3}}
\headcommand {\slideentry {1}{1}{2}{4/4}{The Basic Problem That We Studied}{0}}
\headcommand {\beamer@framepages {4}{4}}
\headcommand {\slideentry {1}{1}{3}{5/10}{The Basic Problem That We Studied}{0}}
\headcommand {\beamer@framepages {5}{10}}
\headcommand {\beamer@subsectionentry {0}{1}{2}{11}{Previous Work}}\headcommand {\beamer@subsectionpages {3}{10}}
\headcommand {\slideentry {1}{2}{1}{11/11}{Previous Work}{0}}
\headcommand {\beamer@framepages {11}{11}}
\headcommand {\slideentry {1}{2}{2}{12/12}{Previous Work}{0}}
\headcommand {\beamer@framepages {12}{12}}
\headcommand {\slideentry {1}{2}{3}{13/13}{Previous Work}{0}}
\headcommand {\beamer@framepages {13}{13}}
\headcommand {\sectionentry {2}{Resultados/Contribui\c c\~oes}{14}{Resultados/Contribui\c c\~oes}{0}}
\headcommand {\beamer@sectionpages {3}{13}}
\headcommand {\beamer@subsectionpages {11}{13}}
\headcommand {\beamer@subsectionentry {0}{2}{1}{14}{Main Results}}\headcommand {\beamer@subsectionpages {14}{13}}
\headcommand {\slideentry {2}{1}{1}{14/14}{Main Results}{0}}
\headcommand {\beamer@framepages {14}{14}}
\headcommand {\slideentry {2}{1}{2}{15/15}{Main Results}{0}}
\headcommand {\beamer@framepages {15}{15}}
\headcommand {\slideentry {2}{1}{3}{16/16}{Main Results}{0}}
\headcommand {\beamer@framepages {16}{16}}
\headcommand {\slideentry {2}{1}{4}{17/17}{Main Results}{0}}
\headcommand {\beamer@framepages {17}{17}}
\headcommand {\beamer@subsectionentry {0}{2}{2}{18}{Basic Ideas for Proofs/Implementation}}\headcommand {\beamer@subsectionpages {14}{17}}
\headcommand {\slideentry {2}{2}{1}{18/18}{Basic Ideas for Proofs/Implementation}{0}}
\headcommand {\beamer@framepages {18}{18}}
\headcommand {\slideentry {2}{2}{2}{19/19}{Basic Ideas for Proofs/Implementation}{0}}
\headcommand {\beamer@framepages {19}{19}}
\headcommand {\slideentry {2}{2}{3}{20/20}{Basic Ideas for Proofs/Implementation}{0}}
\headcommand {\beamer@framepages {20}{20}}
\headcommand {\slideentry {2}{2}{4}{21/21}{Basic Ideas for Proofs/Implementation}{0}}
\headcommand {\beamer@framepages {21}{21}}
\headcommand {\sectionentry {3}{Conclus\~oes}{22}{Conclus\~oes}{0}}
\headcommand {\beamer@sectionpages {14}{21}}
\headcommand {\beamer@subsectionpages {18}{21}}
\headcommand {\slideentry {3}{0}{5}{22/22}{}{0}}
\headcommand {\beamer@framepages {22}{22}}
\headcommand {\partentry {Ap\^endice}{1}}
\headcommand {\beamer@partpages {1}{22}}
\headcommand {\beamer@sectionpages {22}{22}}
\headcommand {\beamer@subsectionpages {22}{22}}
\headcommand {\beamer@appendixpages {23}}
\headcommand {\sectionentry {4}{Ap\^endice}{23}{Ap\^endice}{1}}
\headcommand {\beamer@sectionpages {23}{22}}
\headcommand {\beamer@subsectionpages {23}{22}}
\headcommand {\beamer@subsectionentry {1}{4}{1}{23}{For Further Reading}}\headcommand {\beamer@subsectionpages {23}{22}}
\headcommand {\slideentry {4}{1}{1}{23/23}{For Further Reading}{1}}
\headcommand {\beamer@framepages {23}{23}}
\headcommand {\beamer@partpages {23}{23}}
\headcommand {\beamer@subsectionpages {23}{23}}
\headcommand {\beamer@sectionpages {23}{23}}
\headcommand {\beamer@documentpages {23}}
\headcommand {\def \inserttotalframenumber {18}}
