\beamer@endinputifotherversion {3.07pt}
\select@language {brazilian}
\beamer@sectionintoc {1}{Motiva\c c\~ao}{3}{0}{1}
\beamer@subsectionintoc {1}{1}{The Basic Problem That We Studied}{3}{0}{1}
\beamer@subsectionintoc {1}{2}{Previous Work}{11}{0}{1}
\beamer@sectionintoc {2}{Resultados/Contribui\c c\~oes}{14}{0}{2}
\beamer@subsectionintoc {2}{1}{Main Results}{14}{0}{2}
\beamer@subsectionintoc {2}{2}{Basic Ideas for Proofs/Implementation}{18}{0}{2}
