\relax 
\ifx\hyper@anchor\@undefined
\global \let \oldcontentsline\contentsline
\gdef \contentsline#1#2#3#4{\oldcontentsline{#1}{#2}{#3}}
\global \let \oldnewlabel\newlabel
\gdef \newlabel#1#2{\newlabelxx{#1}#2}
\gdef \newlabelxx#1#2#3#4#5#6{\oldnewlabel{#1}{{#2}{#3}}}
\AtEndDocument{\let \contentsline\oldcontentsline
\let \newlabel\oldnewlabel}
\else
\global \let \hyper@last\relax 
\fi

\catcode`"\active
\@writefile{toc}{\beamer@endinputifotherversion {3.07pt}}
\@writefile{nav}{\beamer@endinputifotherversion {3.07pt}}
\select@language{brazilian}
\@writefile{toc}{\select@language{brazilian}}
\@writefile{lof}{\select@language{brazilian}}
\@writefile{lot}{\select@language{brazilian}}
\@writefile{nav}{\headcommand {\slideentry {0}{0}{1}{1/1}{}{0}}}
\@writefile{nav}{\headcommand {\beamer@framepages {1}{1}}}
\@writefile{nav}{\headcommand {\slideentry {0}{0}{2}{2/2}{}{0}}}
\@writefile{nav}{\headcommand {\beamer@framepages {2}{2}}}
\@writefile{toc}{\beamer@sectionintoc {1}{Motiva\c c\~ao}{3}{0}{1}}
\@writefile{nav}{\headcommand {\sectionentry {1}{Motiva\c c\~ao}{3}{Motiva\c c\~ao}{0}}}
\@writefile{nav}{\headcommand {\beamer@sectionpages {1}{2}}}
\@writefile{nav}{\headcommand {\beamer@subsectionpages {1}{2}}}
\@writefile{toc}{\beamer@subsectionintoc {1}{1}{The Basic Problem That We Studied}{3}{0}{1}}
\@writefile{nav}{\headcommand {\beamer@subsectionentry {0}{1}{1}{3}{The Basic Problem That We Studied}}\headcommand {\beamer@subsectionpages {3}{2}}}
\@writefile{nav}{\headcommand {\slideentry {1}{1}{1}{3/3}{The Basic Problem That We Studied}{0}}}
\@writefile{nav}{\headcommand {\beamer@framepages {3}{3}}}
\@writefile{nav}{\headcommand {\slideentry {1}{1}{2}{4/4}{The Basic Problem That We Studied}{0}}}
\@writefile{nav}{\headcommand {\beamer@framepages {4}{4}}}
\@writefile{nav}{\headcommand {\slideentry {1}{1}{3}{5/10}{The Basic Problem That We Studied}{0}}}
\@writefile{nav}{\headcommand {\beamer@framepages {5}{10}}}
\@writefile{toc}{\beamer@subsectionintoc {1}{2}{Previous Work}{11}{0}{1}}
\@writefile{nav}{\headcommand {\beamer@subsectionentry {0}{1}{2}{11}{Previous Work}}\headcommand {\beamer@subsectionpages {3}{10}}}
\@writefile{nav}{\headcommand {\slideentry {1}{2}{1}{11/11}{Previous Work}{0}}}
\@writefile{nav}{\headcommand {\beamer@framepages {11}{11}}}
\@writefile{nav}{\headcommand {\slideentry {1}{2}{2}{12/12}{Previous Work}{0}}}
\@writefile{nav}{\headcommand {\beamer@framepages {12}{12}}}
\@writefile{nav}{\headcommand {\slideentry {1}{2}{3}{13/13}{Previous Work}{0}}}
\@writefile{nav}{\headcommand {\beamer@framepages {13}{13}}}
\@writefile{toc}{\beamer@sectionintoc {2}{Resultados/Contribui\c c\~oes}{14}{0}{2}}
\@writefile{nav}{\headcommand {\sectionentry {2}{Resultados/Contribui\c c\~oes}{14}{Resultados/Contribui\c c\~oes}{0}}}
\@writefile{nav}{\headcommand {\beamer@sectionpages {3}{13}}}
\@writefile{nav}{\headcommand {\beamer@subsectionpages {11}{13}}}
\@writefile{toc}{\beamer@subsectionintoc {2}{1}{Main Results}{14}{0}{2}}
\@writefile{nav}{\headcommand {\beamer@subsectionentry {0}{2}{1}{14}{Main Results}}\headcommand {\beamer@subsectionpages {14}{13}}}
\@writefile{nav}{\headcommand {\slideentry {2}{1}{1}{14/14}{Main Results}{0}}}
\@writefile{nav}{\headcommand {\beamer@framepages {14}{14}}}
\@writefile{nav}{\headcommand {\slideentry {2}{1}{2}{15/15}{Main Results}{0}}}
\@writefile{nav}{\headcommand {\beamer@framepages {15}{15}}}
\@writefile{nav}{\headcommand {\slideentry {2}{1}{3}{16/16}{Main Results}{0}}}
\@writefile{nav}{\headcommand {\beamer@framepages {16}{16}}}
\@writefile{nav}{\headcommand {\slideentry {2}{1}{4}{17/17}{Main Results}{0}}}
\@writefile{nav}{\headcommand {\beamer@framepages {17}{17}}}
\@writefile{toc}{\beamer@subsectionintoc {2}{2}{Basic Ideas for Proofs/Implementation}{18}{0}{2}}
\@writefile{nav}{\headcommand {\beamer@subsectionentry {0}{2}{2}{18}{Basic Ideas for Proofs/Implementation}}\headcommand {\beamer@subsectionpages {14}{17}}}
\@writefile{nav}{\headcommand {\slideentry {2}{2}{1}{18/18}{Basic Ideas for Proofs/Implementation}{0}}}
\@writefile{nav}{\headcommand {\beamer@framepages {18}{18}}}
\@writefile{nav}{\headcommand {\slideentry {2}{2}{2}{19/19}{Basic Ideas for Proofs/Implementation}{0}}}
\@writefile{nav}{\headcommand {\beamer@framepages {19}{19}}}
\@writefile{nav}{\headcommand {\slideentry {2}{2}{3}{20/20}{Basic Ideas for Proofs/Implementation}{0}}}
\@writefile{nav}{\headcommand {\beamer@framepages {20}{20}}}
\@writefile{nav}{\headcommand {\slideentry {2}{2}{4}{21/21}{Basic Ideas for Proofs/Implementation}{0}}}
\@writefile{nav}{\headcommand {\beamer@framepages {21}{21}}}
\@writefile{nav}{\headcommand {\sectionentry {3}{Conclus\~oes}{22}{Conclus\~oes}{0}}}
\@writefile{nav}{\headcommand {\beamer@sectionpages {14}{21}}}
\@writefile{nav}{\headcommand {\beamer@subsectionpages {18}{21}}}
\@writefile{nav}{\headcommand {\slideentry {3}{0}{5}{22/22}{}{0}}}
\@writefile{nav}{\headcommand {\beamer@framepages {22}{22}}}
\bibcite{Author1990}{\hyperlink {beamerbibAuthor1990}{1}}
\bibcite{Someone2000}{\hyperlink {beamerbibSomeone2000}{2}}
\@writefile{nav}{\headcommand {\partentry {Ap\^endice}{1}}}
\@writefile{nav}{\headcommand {\beamer@partpages {1}{22}}}
\@writefile{nav}{\headcommand {\beamer@sectionpages {22}{22}}}
\@writefile{nav}{\headcommand {\beamer@subsectionpages {22}{22}}}
\@writefile{nav}{\headcommand {\beamer@appendixpages {23}}}
\@writefile{nav}{\headcommand {\sectionentry {4}{Ap\^endice}{23}{Ap\^endice}{1}}}
\@writefile{nav}{\headcommand {\beamer@sectionpages {23}{22}}}
\@writefile{nav}{\headcommand {\beamer@subsectionpages {23}{22}}}
\@writefile{nav}{\headcommand {\beamer@subsectionentry {1}{4}{1}{23}{For Further Reading}}\headcommand {\beamer@subsectionpages {23}{22}}}
\@writefile{nav}{\headcommand {\slideentry {4}{1}{1}{23/23}{For Further Reading}{1}}}
\@writefile{nav}{\headcommand {\beamer@framepages {23}{23}}}
\@writefile{nav}{\headcommand {\beamer@partpages {23}{23}}}
\@writefile{nav}{\headcommand {\beamer@subsectionpages {23}{23}}}
\@writefile{nav}{\headcommand {\beamer@sectionpages {23}{23}}}
\@writefile{nav}{\headcommand {\beamer@documentpages {23}}}
\@writefile{nav}{\headcommand {\def \inserttotalframenumber {18}}}
