This is BibTeX, Version 0.99c (TeX Live 2009)
The top-level auxiliary file: tcc.aux
I couldn't open database file abnt-options.bib
---line 56 of file tcc.aux
 : \bibdata{abnt-options
 :                      ,tcc}
I'm skipping whatever remains of this command
I couldn't open style file abnt-alf.bst
---line 86 of file tcc.aux
 : \bibstyle{abnt-alf
 :                   }
I'm skipping whatever remains of this command
I found no database files---while reading file tcc.aux
I found no style file---while reading file tcc.aux
You've used 4 entries,
            0 wiz_defined-function locations,
            89 strings with 586 characters,
and the built_in function-call counts, 0 in all, are:
= -- 0
> -- 0
< -- 0
+ -- 0
- -- 0
* -- 0
:= -- 0
add.period$ -- 0
call.type$ -- 0
change.case$ -- 0
chr.to.int$ -- 0
cite$ -- 0
duplicate$ -- 0
empty$ -- 0
format.name$ -- 0
if$ -- 0
int.to.chr$ -- 0
int.to.str$ -- 0
missing$ -- 0
newline$ -- 0
num.names$ -- 0
pop$ -- 0
preamble$ -- 0
purify$ -- 0
quote$ -- 0
skip$ -- 0
stack$ -- 0
substring$ -- 0
swap$ -- 0
text.length$ -- 0
text.prefix$ -- 0
top$ -- 0
type$ -- 0
warning$ -- 0
while$ -- 0
width$ -- 0
write$ -- 0
(There were 4 error messages)
